<svg id="Layer_1" xmlns="http://www.w3.org/2000/svg" viewBox="72 -57 160 131">
  <style>
    .st0{fill:#D2DCE6;} .st1{fill:#DCE1E5;} .st2{fill:#1F5081;} .st3{fill:#B6C4D1;}
  </style>
  <title>
    Settings
  </title>
  <g id="Flow-2-JIRA-adds-Bitbucket">
    <g id="Easy-Connect-2.6.4---account-default-settings-Copy">
      <g id="Modal-600px-_x2013_-footer">
        <g id="Settings">
          <path id="Fill-1" class="st0" d="M81.1 54.5c-.2 1.7.2 3.3 1.3 4.6 1.5 1.8 3.2 3.5 5 5 1.1.9 2.4 1.4 3.8 1.4.9 0 1.8-.2 2.6-.6 1.7-.8 5.3-2.4 7.2-2.4.3 0 .6 0 .8.1 1.5.6 3.2 5.3 3.9 7.3.8 2.2 2.8 3.8 5 4 1.3.1 2.5.2 3.7.2 1.2 0 2.4-.1 3.7-.2 2.3-.2 4.2-1.8 5-4 .7-2 2.4-6.7 3.9-7.3.2-.1.5-.1.8-.1 2 0 5.6 1.7 7.2 2.4.8.4 1.7.6 2.6.6 1.4 0 2.7-.5 3.8-1.4 1.8-1.5 3.5-3.2 5-5 1.1-1.3 1.5-2.9 1.3-4.6-.1 1.1-.6 2.1-1.3 3-1.5 1.8-3.2 3.5-5 5-1.1.9-2.4 1.4-3.8 1.4-.9 0-1.8-.2-2.6-.6-1.7-.8-5.3-2.4-7.2-2.4-.3 0-.6 0-.8.1-1.5.6-3.2 5.3-3.9 7.3-.8 2.2-2.8 3.8-5 4-1.3.1-2.5.2-3.7.2-1.2 0-2.4-.1-3.7-.2-2.3-.2-4.2-1.8-5-4-.7-2-2.4-6.7-3.9-7.3-.2-.1-.5-.1-.8-.1-2 0-5.6 1.7-7.2 2.4-.8.4-1.7.6-2.6.6-1.4 0-2.7-.5-3.8-1.4-1.8-1.5-3.5-3.2-5-5-.7-.9-1.2-1.9-1.3-3m-8.6-23.3v.8c0 1.2.1 2.4.2 3.7.2 2.3 1.8 4.2 4 5 2 .7 6.7 2.4 7.3 3.9v.1c.1-.7.1-1.3 0-1.7-.6-1.5-5.3-3.2-7.3-3.9-2.2-.8-3.8-2.8-4-5-.2-1-.2-2-.2-2.9m84.1 0c0 .9-.1 1.9-.2 2.9-.2 2.3-1.8 4.2-4 5-2 .7-6.7 2.4-7.3 3.9-.2.4-.2 1 0 1.7v-.1c.6-1.5 5.3-3.2 7.3-3.9 2.2-.8 3.8-2.8 4-5 .1-1.3.2-2.5.2-3.7v-.8m-42.1-12.7c-6.5 0-11.9 5.3-11.9 11.9v.8c.4-6.2 5.6-11 11.8-11 6.3 0 11.4 4.9 11.8 11v-.8c.2-6.6-5.1-11.9-11.7-11.9M81.1 7.9c-.2 1.1 0 2.3.5 3.4.7 1.4 2 4.3 2.4 6.3.6-1.7-1.5-6-2.4-7.9-.2-.6-.4-1.2-.5-1.8m66.9 0c-.1.6-.3 1.2-.5 1.8-.9 1.9-2.9 6.2-2.4 7.9.4-2 1.7-4.9 2.4-6.3.5-1.1.6-2.3.5-3.4"/>
          <path id="Fill-2" class="st0" d="M114.5 18.5"/>
          <path id="Fill-3" class="st0" d="M156.3 9.7c-.2 1.7.2 3.3 1.3 4.6 1.5 1.8 3.2 3.5 5 5 1.1.9 2.4 1.4 3.8 1.4.9 0 1.8-.2 2.6-.6 1.7-.8 5.3-2.4 7.2-2.4.3 0 .6 0 .8.1 1.5.6 3.2 5.3 3.9 7.3.8 2.2 2.8 3.8 5 4 1.3.1 2.5.2 3.7.2 1.2 0 2.4-.1 3.7-.2 2.3-.2 4.2-1.8 5-4 .7-2 2.4-6.7 3.9-7.3.2-.1.5-.1.8-.1 2 0 5.6 1.7 7.2 2.4.8.4 1.7.6 2.6.6 1.4 0 2.7-.5 3.8-1.4 1.8-1.5 3.5-3.2 5-5 1.1-1.3 1.5-2.9 1.3-4.6-.1 1.1-.6 2.1-1.3 3-1.5 1.8-3.2 3.5-5 5-1.1.9-2.4 1.4-3.8 1.4-.9 0-1.8-.2-2.6-.6-1.7-.8-5.3-2.4-7.2-2.4-.3 0-.6 0-.8.1-1.5.6-3.2 5.3-3.9 7.3-.8 2.2-2.8 3.8-5 4-1.3.1-2.5.2-3.7.2-1.2 0-2.4-.1-3.7-.2-2.3-.2-4.2-1.8-5-4-.7-2-2.4-6.7-3.9-7.3-.2-.1-.5-.1-.8-.1-2 0-5.6 1.7-7.2 2.4-.8.4-1.7.6-2.6.6-1.4 0-2.7-.5-3.8-1.4-1.8-1.5-3.5-3.2-5-5-.7-.9-1.2-1.9-1.3-3m75.5-23.3c0 .9-.1 1.9-.2 2.9-.2 2.3-1.8 4.2-4 5-2 .7-6.7 2.4-7.3 3.9-.2.4-.2 1 0 1.7v-.1c.6-1.5 5.3-3.2 7.3-3.9 2.2-.8 3.8-2.8 4-5 .1-1.3.2-2.5.2-3.7v-.8m-84.2 0v.8c0 1.2.1 2.4.2 3.7.2 2.3 1.8 4.2 4 5 2 .7 6.7 2.4 7.3 3.9v.1c.1-.7.1-1.3 0-1.7-.6-1.5-5.3-3.2-7.3-3.9-2.2-.8-3.8-2.8-4-5-.1-1-.1-2-.2-2.9m42.1-12.7c-6.5 0-11.9 5.3-11.9 11.9v.8c.4-6.2 5.6-11 11.8-11s11.4 4.9 11.8 11v-.8c.2-6.6-5.1-11.9-11.7-11.9m33.5-10.6c-.1.6-.3 1.2-.5 1.8-.9 1.9-2.9 6.2-2.4 7.9.4-2 1.7-4.9 2.4-6.3.4-1.1.6-2.3.5-3.4m-66.9 0c-.2 1.1 0 2.3.5 3.4.7 1.4 2 4.3 2.4 6.3.6-1.7-1.5-6-2.4-7.9-.3-.6-.4-1.2-.5-1.8"/>
          <path id="Fill-4" class="st1" d="M154.8 26.8c-.2-1.7-1.4-3.1-3-3.7-3.9-1.4-7.4-2.9-8.2-4.8-.8-2 .6-5.6 2.3-9.3.7-1.5.6-3.4-.5-4.7-1.5-1.7-3.1-3.3-4.8-4.8-1.3-1.1-3.2-1.3-4.7-.5-3.8 1.7-7.3 3.2-9.3 2.3-1.9-.8-3.4-4.3-4.8-8.2-.6-1.6-2-2.8-3.7-3-1.2-.1-2.4-.2-3.6-.2-1.2 0-2.4.1-3.6.2-1.7.2-3.1 1.4-3.7 3-1.4 3.9-2.9 7.4-4.8 8.2-2 .8-5.6-.6-9.3-2.3-1.5-.7-3.4-.6-4.7.5C86.7 1 85 2.6 83.6 4.3c-1.1 1.3-1.3 3.2-.5 4.7 1.7 3.8 3.2 7.3 2.3 9.3-.8 1.9-4.3 3.4-8.2 4.8-1.6.6-2.8 2-3 3.7-.1 1.2-.2 2.4-.2 3.6s.1 2.4.2 3.6c.2 1.7 1.4 3.1 3 3.7 3.9 1.4 7.4 2.9 8.2 4.8.8 2-.6 5.6-2.3 9.3-.7 1.5-.6 3.4.5 4.7 1.5 1.7 3.1 3.3 4.8 4.8 1.3 1.1 3.2 1.3 4.7.5 3.8-1.7 7.3-3.2 9.3-2.3 1.9.8 3.4 4.3 4.8 8.2.6 1.6 2 2.8 3.7 3 1.2.1 2.4.2 3.6.2 1.2 0 2.4-.1 3.6-.2 1.7-.2 3.1-1.4 3.7-3 1.4-3.9 2.9-7.4 4.8-8.2 2-.8 5.6.6 9.3 2.3 1.5.7 3.4.6 4.7-.5 1.7-1.5 3.4-3.1 4.8-4.8 1.1-1.3 1.3-3.2.5-4.7-1.7-3.8-3.2-7.3-2.3-9.3.8-1.9 4.3-3.4 8.2-4.8 1.6-.6 2.8-2 3-3.7.1-1.2.2-2.4.2-3.6s-.1-2.4-.2-3.6m-40.3 17c-7.5 0-13.5-6-13.5-13.5s6-13.5 13.5-13.5c7.4 0 13.5 6 13.5 13.5s-6 13.5-13.5 13.5"/>
          <path id="Fill-5" class="st2" d="M114.5 72.4c-1.2 0-2.4-.1-3.7-.2-2.3-.2-4.2-1.8-5-4-.7-2-2.4-6.7-3.9-7.3-1.6-.7-6.1 1.4-8 2.3-2.2 1-4.7.7-6.4-.8-1.8-1.5-3.5-3.2-5-5-1.5-1.7-1.8-4.3-.8-6.4.9-1.9 3-6.4 2.3-8-.6-1.5-5.3-3.2-7.3-3.9-2.2-.8-3.8-2.8-4-5-.1-1.3-.2-2.5-.2-3.7 0-1.2.1-2.4.2-3.7.2-2.3 1.8-4.2 4-5 2-.7 6.7-2.4 7.3-3.9.7-1.6-1.4-6.1-2.3-8-1-2.2-.7-4.7.8-6.4 1.5-1.8 3.2-3.5 5-5 1.7-1.5 4.3-1.8 6.4-.8 1.9.9 6.4 3 8 2.3 1.5-.6 3.2-5.3 3.9-7.3.8-2.2 2.8-3.8 5-4 2.6-.3 4.9-.3 7.5 0 2.3.2 4.2 1.8 5 4 .7 2 2.4 6.7 3.9 7.3 1.6.7 6.1-1.4 8-2.3 2.2-1 4.7-.7 6.4.8 1.8 1.5 3.5 3.2 5 5 1.5 1.7 1.8 4.3.8 6.4-.9 1.9-3 6.4-2.3 8 .6 1.5 5.3 3.2 7.3 3.9 2.2.8 3.8 2.8 4 5 .1 1.3.2 2.5.2 3.7 0 1.2-.1 2.4-.2 3.7-.2 2.3-1.8 4.2-4 5-2 .7-6.7 2.4-7.3 3.9-.7 1.6 1.4 6.1 2.3 8 1 2.2.7 4.7-.8 6.4-1.5 1.8-3.2 3.5-5 5-1.7 1.5-4.3 1.8-6.4.8-1.9-.9-6.4-3-8-2.3-1.5.6-3.2 5.3-3.9 7.3-.8 2.2-2.8 3.8-5 4-1.3.1-2.6.2-3.8.2m-13.4-14.9c.7 0 1.4.1 2 .4 2.6 1.1 4.2 5 5.7 9.2.4 1 1.3 1.8 2.3 1.9 2.4.2 4.4.2 6.8 0 1-.1 1.9-.8 2.3-1.9 1.5-4.2 3.1-8.1 5.7-9.2 2.4-1 5.7.1 10.6 2.4 1 .5 2.2.4 3-.3 1.7-1.4 3.2-3 4.6-4.6.7-.8.8-2 .3-3-2.3-4.9-3.4-8.2-2.4-10.6 1.1-2.6 5-4.2 9.2-5.7 1-.4 1.8-1.3 1.9-2.3.1-1.2.2-2.3.2-3.4s-.1-2.2-.2-3.4c-.1-1-.8-1.9-1.9-2.3-4.2-1.5-8.1-3.1-9.2-5.7-1-2.4.1-5.7 2.4-10.6.5-1 .4-2.2-.3-3-1.4-1.7-3-3.2-4.6-4.6-.8-.7-2-.8-3-.3-4.9 2.3-8.2 3.4-10.6 2.4-2.6-1.1-4.2-5-5.7-9.2-.4-1-1.3-1.8-2.3-1.9-2.4-.2-4.4-.2-6.8 0-1 .1-1.9.8-2.3 1.9-1.5 4.2-3.1 8.1-5.7 9.2-2.4 1-5.7-.1-10.6-2.4-1-.5-2.2-.4-3 .3-1.7 1.4-3.2 3-4.6 4.6-.7.8-.8 2-.3 3C86.9 13.3 88 16.6 87 19c-1.1 2.6-5 4.2-9.2 5.7-1 .4-1.8 1.3-1.9 2.3-.1 1.2-.2 2.3-.2 3.4s.1 2.2.2 3.4c.1 1 .8 1.9 1.9 2.3 4.2 1.5 8.1 3.1 9.2 5.7 1 2.4-.1 5.7-2.4 10.6-.5 1-.4 2.2.3 3 1.4 1.7 3 3.2 4.6 4.6.8.7 2 .8 3 .3 3.6-1.7 6.4-2.8 8.6-2.8m13.4-12c-8.3 0-15.1-6.8-15.1-15.1s6.8-15.1 15.1-15.1 15.1 6.8 15.1 15.1-6.7 15.1-15.1 15.1m0-27c-6.5 0-11.9 5.3-11.9 11.9 0 6.5 5.3 11.9 11.9 11.9s11.9-5.3 11.9-11.9c0-6.6-5.3-11.9-11.9-11.9"/>
          <path id="Fill-6" class="st3" d="M114.5 45.5c-8.3 0-15.1-6.8-15.1-15.1s6.8-15.1 15.1-15.1 15.1 6.8 15.1 15.1-6.7 15.1-15.1 15.1m0-35.1c-11 0-20 8.9-20 19.9s8.9 19.9 20 19.9c11 0 20-8.9 20-19.9s-8.9-19.9-20-19.9"/>
          <path id="Fill-7" class="st2" d="M114.5 43.8c-7.5 0-13.5-6-13.5-13.5s6-13.5 13.5-13.5c7.4 0 13.5 6 13.5 13.5s-6 13.5-13.5 13.5m0-28.5c-8.3 0-15.1 6.8-15.1 15.1s6.8 15.1 15.1 15.1 15.1-6.8 15.1-15.1-6.7-15.1-15.1-15.1"/>
          <path id="Fill-8" class="st1" d="M230-18c-.2-1.7-1.4-3.1-3-3.7-3.9-1.4-7.4-2.8-8.2-4.8-.8-2 .6-5.6 2.3-9.3.7-1.5.6-3.4-.5-4.7-1.5-1.7-3.1-3.3-4.8-4.8-1.3-1.1-3.2-1.3-4.7-.5-3.8 1.7-7.3 3.2-9.3 2.3-1.9-.8-3.4-4.3-4.8-8.2-.6-1.6-2-2.8-3.7-3-1.2-.1-2.4-.2-3.6-.2-1.2 0-2.4.1-3.6.2-1.7.2-3.1 1.4-3.7 3-1.4 3.9-2.9 7.4-4.8 8.2-2 .8-5.6-.6-9.3-2.3-1.5-.7-3.4-.6-4.7.5-1.7 1.5-3.4 3.1-4.8 4.8-1.1 1.3-1.3 3.2-.5 4.7 1.7 3.8 3.2 7.3 2.3 9.3-.8 1.9-4.3 3.4-8.2 4.8-1.6.6-2.8 2-3 3.7-.1 1.2-.2 2.4-.2 3.6 0 1.2.1 2.4.2 3.6.2 1.7 1.4 3.1 3 3.7 3.9 1.4 7.4 2.8 8.2 4.8.8 2-.6 5.6-2.3 9.3-.7 1.5-.6 3.4.5 4.7 1.5 1.7 3.1 3.3 4.8 4.8 1.3 1.1 3.2 1.3 4.7.5 3.8-1.7 7.3-3.2 9.3-2.3 1.9.8 3.4 4.3 4.8 8.2.6 1.6 2 2.8 3.7 3 1.2.1 2.4.2 3.6.2 1.2 0 2.4-.1 3.6-.2 1.7-.2 3.1-1.4 3.7-3 1.4-3.9 2.9-7.4 4.8-8.2 2-.8 5.6.6 9.3 2.3 1.5.7 3.4.6 4.7-.5 1.7-1.5 3.4-3.1 4.8-4.8 1.1-1.3 1.3-3.2.5-4.7-1.7-3.8-3.2-7.3-2.3-9.3.8-1.9 4.3-3.4 8.2-4.8 1.6-.6 2.8-2 3-3.7.1-1.2.2-2.4.2-3.6 0-1.2-.1-2.4-.2-3.6M189.7-.9c-7.4 0-13.5-6-13.5-13.5 0-7.4 6-13.5 13.5-13.5s13.5 6 13.5 13.5c0 7.4-6 13.5-13.5 13.5"/>
          <path id="Fill-9" class="st2" d="M189.7 27.6c-1.2 0-2.4-.1-3.7-.2-2.3-.2-4.2-1.8-5-4-.7-2-2.4-6.7-3.9-7.3-1.6-.7-6.1 1.4-8 2.3-2.2 1-4.7.7-6.4-.8-1.8-1.5-3.5-3.2-5-5-1.5-1.7-1.8-4.3-.8-6.4.9-1.9 3-6.4 2.3-8-.6-1.5-5.3-3.2-7.3-3.9-2.2-.8-3.8-2.8-4-5-.1-1.3-.2-2.5-.2-3.7 0-1.2.1-2.4.2-3.7.2-2.3 1.8-4.2 4-5 2-.7 6.7-2.4 7.3-3.9.7-1.6-1.4-6.1-2.3-8-1-2.2-.7-4.7.8-6.4 1.5-1.8 3.2-3.5 5-5 1.7-1.5 4.3-1.8 6.4-.8 1.9.9 6.4 3 8 2.3 1.5-.6 3.2-5.3 3.9-7.3.8-2.2 2.8-3.8 5-4 2.6-.3 4.9-.3 7.5 0 2.3.2 4.2 1.8 5 4 .7 2 2.4 6.7 3.9 7.3 1.6.7 6.1-1.4 8-2.3 2.2-1 4.7-.7 6.4.8 1.8 1.5 3.5 3.2 5 5 1.5 1.7 1.8 4.3.8 6.4-.9 1.9-3 6.4-2.3 8 .6 1.5 5.3 3.2 7.3 3.9 2.2.8 3.8 2.8 4 5 .1 1.3.2 2.5.2 3.7 0 1.2-.1 2.4-.2 3.7-.2 2.3-1.8 4.2-4 5-2 .7-6.7 2.4-7.3 3.9-.7 1.6 1.4 6.1 2.3 8 1 2.2.7 4.7-.8 6.4-1.5 1.8-3.2 3.5-5 5-1.7 1.5-4.3 1.8-6.4.8-1.9-.9-6.4-3-8-2.3-1.5.6-3.2 5.3-3.9 7.3-.8 2.2-2.8 3.8-5 4-1.3.2-2.6.2-3.8.2m-13.4-14.8c.7 0 1.4.1 2 .4 2.6 1.1 4.2 5 5.7 9.2.4 1 1.3 1.8 2.3 1.9 2.4.2 4.4.2 6.8 0 1-.1 1.9-.8 2.3-1.9 1.5-4.2 3.1-8.1 5.7-9.2 2.4-1 5.7.1 10.6 2.4 1 .5 2.2.4 3-.3 1.7-1.4 3.2-3 4.6-4.6.7-.8.8-2 .3-3-2.3-4.9-3.4-8.2-2.4-10.6 1.1-2.6 5-4.2 9.2-5.7 1-.4 1.8-1.3 1.9-2.3.1-1.2.2-2.3.2-3.4s-.1-2.2-.2-3.4c-.1-1-.8-1.9-1.9-2.3-4.2-1.5-8.1-3.1-9.2-5.7-1-2.4.1-5.7 2.4-10.6.5-1 .4-2.2-.3-3-1.4-1.7-3-3.2-4.6-4.6-.8-.7-2-.8-3-.3-4.9 2.3-8.2 3.4-10.6 2.4-2.6-1.1-4.2-5-5.7-9.2-.4-1-1.3-1.8-2.3-1.9-2.4-.2-4.4-.2-6.8 0-1 .1-1.9.8-2.3 1.9-1.5 4.2-3.1 8.1-5.7 9.2-2.4 1-5.7-.1-10.6-2.4-1-.5-2.2-.4-3 .3-1.7 1.4-3.2 3-4.6 4.6-.7.8-.8 2-.3 3 2.3 4.9 3.4 8.2 2.4 10.6-1.1 2.6-5 4.2-9.2 5.7-1 .4-1.8 1.3-1.9 2.3-.1 1.2-.2 2.3-.2 3.4s.1 2.2.2 3.4c.1 1 .8 1.9 1.9 2.3 4.2 1.5 8.1 3.1 9.2 5.7 1 2.4-.1 5.7-2.4 10.6-.5 1-.4 2.2.3 3 1.4 1.7 3 3.2 4.6 4.6.8.7 2 .8 3 .3 3.6-1.8 6.4-2.8 8.6-2.8M189.7.7c-8.3 0-15.1-6.8-15.1-15.1s6.8-15.1 15.1-15.1 15.1 6.8 15.1 15.1S198.1.7 189.7.7m0-27c-6.5 0-11.9 5.3-11.9 11.9s5.3 11.9 11.9 11.9 11.9-5.3 11.9-11.9-5.3-11.9-11.9-11.9"/>
          <path id="Fill-10" class="st3" d="M189.7.7c-8.3 0-15.1-6.8-15.1-15.1s6.8-15.1 15.1-15.1 15.1 6.8 15.1 15.1S198.1.7 189.7.7m0-35.1c-11 0-20 8.9-20 19.9 0 11 8.9 19.9 20 19.9s20-8.9 20-19.9c0-10.9-9-19.9-20-19.9"/>
          <path id="Fill-11" class="st2" d="M189.7-.9c-7.4 0-13.5-6-13.5-13.5 0-7.4 6-13.5 13.5-13.5s13.5 6 13.5 13.5c0 7.4-6 13.5-13.5 13.5m0-28.6c-8.3 0-15.1 6.8-15.1 15.1S181.4.7 189.7.7s15.1-6.8 15.1-15.1-6.7-15.1-15.1-15.1"/>
        </g>
      </g>
    </g>
  </g>
</svg>
